…
                      # Make interaction variables

  # Meaning of interactions: 
   # sector_group*fuel_code - relationship b/w consumers and types of fuel burnt for energy
   # state_code*cooling_days, state_code*heating_days - how different areas of the country
   # demand energy at different levels depending on temperature
  

  
train_recipe %>% prep() %>% juice()
```

    ## # A tibble: 16,278 x 35
    ##     year plant_code useful_thermal_~ fuel_consumptio~ quantity_of_fue~
    ##    <dbl>      <dbl>            <dbl>            <dbl>            <dbl>
    ##  1 -1.33       7482           -0.197           -0.311           -0.323
    ##  2 -1.33       6338           -0.197           -0.311           -0.323
    ##  3 -1.33       7169           -0.197           -0.313           -0.324
    ##  4 -1.33      54305           -0.186           -0.308           -0.322
    ##  5 -1.33       6323           -0.197           -0.312           -0.324
    ##  6 -1.33        421           -0.197           -0.313           -0.324
    ##  7 -1.33       6341           -0.197           -0.312           -0.324
    ##  8 -1.33       6314           -0.197           -0.311           -0.323
    ##  9 -1.33       7174           -0.195           -0.311           -0.323
    ## 10 -1.33       6566           -0.197           -0.286           -0.315
    ## # ... with 16,268 more rows, and 30 more variables: cooling_days <dbl>,
    ## #   heating_days <dbl>, emissions <dbl>, state_CA <dbl>, state_NY <dbl>,
    ## #   state_TX <dbl>, sector_group_ELECTRIC.POWER <dbl>, sector_code_X2 <dbl>,
    ## #   sector_code_X3 <dbl>, sector_code_X5 <dbl>, sector_code_X7 <dbl>,
    ## #   prime_mover_CA <dbl>, prime_mover_CT <dbl>, prime_mover_GT <dbl>,
    ## #   prime_mover_IC <dbl>, prime_mover_ST <dbl>, fuel_code_DFO <dbl>,
    ## #   aggregated_fuel_group_GAS <dbl>, balancing_authority_code_CISO <dbl>,
    ## #   balancing_authority_code_ISNE <dbl>, balancing_authority_code_MISO <dbl>,
    ## #   balancing_authority_code_PJM <dbl>, balancing_authority_code_SWPP <dbl>,
…
